Get the functional groups from an EwE file — get_functional_groups • ecosystemom
…
functional_group_snake_case. A standardized version of the functional
group name. The functional_group is converted to lowercase and swaps
spaces or hyphens for underscores.

    Examples

get_functional_groups(
  file_path = fs::path(
    system.file("extdata", package = "ecosystemom"),
    "ewe_ecosim_with_environmental_data_nwatlantic", "basic_estimates.csv"
  )
)
#> # A tibble: 22 × 4
#>    functional_group species      group functional_group_snake_case
#>    <chr>            <chr>        <chr> <chr>                      
#>  1 striped bass 0   striped bass 0     striped_bass_0             
#>  2 striped bass 2-5 striped bass 2-5   striped_bass_2_5           
#>  3 striped bass 6+  striped bass 6+    striped_bass_6_plus        
#>  4 menhaden 0       menhaden     0     menhaden_0                 
#>  5 menhaden 1       menhaden     1     menhaden_1                 
#>  6 menhaden 2       menhaden     2     menhaden_2                 
#>  7 menhaden 3       menhaden     3     menhaden_3                 
#>  8 menhaden 4       menhaden     4     menhaden_4                 
#>  9 menhaden 5       menhaden     5     menhaden_5                 
#> 10 menhaden 6+      menhaden     6+    menhaden_6_plus            
#> # ℹ 12 more rows
…
